<svg width="19" height="29" viewBox="0 0 19 29" fill="none" xmlns="http://www.w3.org/2000/svg">
<path fill-rule="evenodd" clip-rule="evenodd" d="M17.9367 5.67391C18.3328 5.67391 18.6542 5.39148 18.6542 5.04348V0.796239C18.6542 0.465891 18.365 0.191022 17.9905 0.167696C16.849 0.0964565 14.6191 0 13.0156 0C8.60962 0 5.73975 2.32 5.73975 6.53635V10.7174H0.717469C0.321426 10.7174 0 10.9998 0 11.3478V15.7609C0 16.1089 0.321426 16.3913 0.717469 16.3913H5.73975V28.3696C5.73975 28.7176 6.06118 29 6.45722 29H11.4795C11.8755 29 12.197 28.7176 12.197 28.3696V16.3913H17.3785C17.7444 16.3913 18.0515 16.1498 18.0917 15.8302L18.6499 11.4172C18.6972 11.044 18.3643 10.7174 17.9367 10.7174H12.197V7.56522C12.197 6.52059 13.1605 5.67391 14.3494 5.67391H17.9367Z" fill="#1877F2"/>
</svg>
